MFD analysis
…
Q2a Analysis

Describe a circumstance where you think its right to hold a grudge

#2a
#Preview data =============#
grudata %>%
  select(starts_with("desc_app")) %>% 
  print(10)

## # A tibble: 405 x 1
##    desc_app                                                                     
##    <chr>                                                                        
##  1 friends insuls kid                                                           
##  2 <NA>                                                                         
##  3 If someone has done something to significantly impact your life in a negativ
##  4 Physical, emotional, mental abuse.                                           
##  5 Someone has significantly wronged you or someone close to you.               
##  6 A circumstance where it is okay to hold a grudge is one where the other part
##  7 I don't know if I ever think it's *right* to hold a grudge. I don't think th
##  8 When someone you thought cared about you and that you cared about, does some
##  9 I think its right to hold a grudge if the other person is seriously harmful 
## 10 When someone has wronged you.                                                
## #  with 395 more rows
…
Q2b Analysis

Describe a circumstance where you think its wrong to hold a grudge

#2b
#Preview data =============#
grudata %>%
  select(starts_with("desc_inapp")) %>% 
  print(10)

## # A tibble: 405 x 1
##    desc_inapp                                                                   
##    <chr>                                                                        
##  1 friend accidentally hurts feelings                                           
##  2 <NA>                                                                         
##  3 You shouldn't hold a grudge over something petty, like not getting back $10 
##  4 If someone acknowleges this mistakes and sincerely apologies                 
##  5 Someone has beaten you in fair competition, or due to chance.                
##  6 A circumstance where it is wrong to hold a grudge is one where an act was un
##  7 I think if you hold a grudge against someone for something they didn't do...
##  8 If someone did something that hurt me but ultimately was for my best interes
##  9 It would be wrong to hold a grudge if the person is genuinely remorseful and
## 10 When someone has not wronged you.                                            
## #  with 395 more rows
…
Q3 Analysis

For what reason do people typically hold grudges?

#Preview data =============+#
grudata %>%
  select(starts_with("desc_rsn")) %>% 
  print(10)

## # A tibble: 405 x 1
##    desc_rsn                                                                     
##    <chr>                                                                        
##  1 "insult"                                                                     
##  2  <NA>                                                                        
##  3 "They have emotional imbalances that they need to learn to control."         
##  4 "they feel very hurt and are unable to let go of the pain in order to let go
##  5 "They cannot - for whatever reason - express their anger immediately or let 
##  6 "People hold grudges because humans are sensitive and egos are easy to wound
##  7 "Someone else hurt them."                                                    
##  8 "Because we can't let go of the pain we felt by someone's actions."          
##  9 "I think people typically hold grudges after being betrayed, or experiencing
## 10 "Because they are upset with something someone did."                         
## #  with 395 more rows
…
Q5 Analysis

Describe a circumstance where you have held a grudge (sentences)

#Preview data =============#
grudata %>% 
  select(starts_with("desc_crmst")) %>% 
  print(10)

## # A tibble: 405 x 1
##    desc_crmst                                                                   
##    <chr>                                                                        
##  1 my sisrer was mean                                                           
##  2 <NA>                                                                         
##  3 A coworker would consistently annoy me and would often do what he could to t
##  4 <NA>                                                                         
##  5 Love triangle                                                                
##  6 I held a grudge when my sister didn't take part in my family's Christmas whi
##  7 Definitely held a grudge against a woman I worked with in high school -- a 5
##  8 I held a grudge against a classmate for getting me in trouble despite it bei
##  9 I held a grudge against someone who bullied me while growing up, especially 
## 10 When someone took the last piece of pizza.                                   
## #  with 395 more rows
…
